{
	"agcgw":{
		"backurl":"connect-drru.hispace.dbankcloud.cn",
		"url":"connect-drru.hispace.dbankcloud.ru",
		"websocketbackurl":"connect-ws-drru.hispace.dbankcloud.cn",
		"websocketurl":"connect-ws-drru.hispace.dbankcloud.ru"
	},
	"agcgw_all":{
		"CN":"connect-drcn.dbankcloud.cn",
		"CN_back":"connect-drcn.hispace.hicloud.com",
		"DE":"connect-dre.dbankcloud.cn",
		"DE_back":"connect-dre.hispace.hicloud.com",
		"RU":"connect-drru.hispace.dbankcloud.ru",
		"RU_back":"connect-drru.hispace.dbankcloud.cn",
		"SG":"connect-dra.dbankcloud.cn",
		"SG_back":"connect-dra.hispace.hicloud.com"
	},
	"websocketgw_all":{
		"CN":"connect-ws-drcn.hispace.dbankcloud.cn",
		"CN_back":"connect-ws-drcn.hispace.dbankcloud.com",
		"DE":"connect-ws-dre.hispace.dbankcloud.cn",
		"DE_back":"connect-ws-dre.hispace.dbankcloud.com",
		"RU":"connect-ws-drru.hispace.dbankcloud.ru",
		"RU_back":"connect-ws-drru.hispace.dbankcloud.cn",
		"SG":"connect-ws-dra.hispace.dbankcloud.cn",
		"SG_back":"connect-ws-dra.hispace.dbankcloud.com"
	},
	"client":{
		"cp_id":"2649997000021454085",
		"product_id":"99536292102065833",
		"client_id":"844448256602684224",
		"client_secret":"125B3DAA9C9C2EB79B887FD48C9243595DF0DE9B93235B8A4DA410C37E38CFF7",
		"project_id":"99536292102065833",
		"app_id":"105744451",
		"api_key":"DAEDAJe28TJYK7EDalQxWkqDG+iE6oQJDhWUhRYAB+8lfpAXc31jaTMN1J8vIiWoaj1zSr6TRyCAsg7FeYXXi0HjtnaIVmEeBpYubA==",
		"package_name":"thousand.group.uylen"
	},
	"oauth_client":{
		"client_id":"105744451",
		"client_type":1
	},
	"app_info":{
		"app_id":"105744451",
		"package_name":"thousand.group.uylen"
	},
	"service":{
		"analytics":{
			"collector_url":"datacollector-drru.dt.dbankcloud.ru,datacollector-drru.dt.hicloud.com",
			"collector_url_ru":"datacollector-drru.dt.dbankcloud.ru,datacollector-drru.dt.hicloud.com",
			"collector_url_sg":"datacollector-dra.dt.hicloud.com,datacollector-dra.dt.dbankcloud.cn",
			"collector_url_de":"datacollector-dre.dt.hicloud.com,datacollector-dre.dt.dbankcloud.cn",
			"collector_url_cn":"datacollector-drcn.dt.hicloud.com,datacollector-drcn.dt.dbankcloud.cn",
			"resource_id":"p1",
			"channel_id":""
		},
		"search":{
			"url":"https://search-drru.cloud.huawei.ru"
		},
		"cloudstorage":{
			"storage_url_sg_back":"https://agc-storage-dra.cloud.huawei.asia",
			"storage_url_ru_back":"https://agc-storage-drru.cloud.huawei.ru",
			"storage_url_ru":"https://agc-storage-drru.cloud.huawei.ru",
			"storage_url_de_back":"https://agc-storage-dre.cloud.huawei.eu",
			"storage_url_de":"https://ops-dre.agcstorage.link",
			"storage_url":"https://agc-storage-drcn.platform.dbankcloud.cn",
			"storage_url_sg":"https://ops-dra.agcstorage.link",
			"storage_url_cn_back":"https://agc-storage-drcn.cloud.huawei.com.cn",
			"storage_url_cn":"https://agc-storage-drcn.platform.dbankcloud.cn"
		},
		"ml":{
			"mlservice_url":"ml-api-drru.ai.dbankcloud.ru,ml-api-drru.ai.dbankcloud.cn"
		}
	},
	"region":"RU",
	"configuration_version":"3.0",
	"appInfos":[
		{
			"package_name":"thousand.group.uylen",
			"client":{
				"app_id":"105744451"
			},
			"app_info":{
				"package_name":"thousand.group.uylen",
				"app_id":"105744451"
			},
			"oauth_client":{
				"client_type":1,
				"client_id":"105744451"
			}
		}
	]
}