{
  "project_info": {
    "project_number": "123277985129",
    "project_id": "uilenapp",
    "storage_bucket": "uilenapp.appspot.com"
  },
  "client": [
    {
      "client_info": {
        "mobilesdk_app_id": "1:123277985129:android:6ae119e3ff0fc3b70ba9f8",
        "android_client_info": {
          "package_name": "thousand.group.uylen"
        }
      },
      "oauth_client": [
        {
          "client_id": "123277985129-lfg4dep1d0jp8c33a51u5fg4k2ujhcai.apps.googleusercontent.com",
          "client_type": 1,
          "android_info": {
            "package_name": "thousand.group.uylen",
            "certificate_hash": "899a3f6bd7351afc33cf94a30342da50ba0b4214"
          }
        },
        {
          "client_id": "123277985129-mes94tt433o844h9kvlsgjg9b325tq9o.apps.googleusercontent.com",
          "client_type": 1,
          "android_info": {
            "package_name": "thousand.group.uylen",
            "certificate_hash": "9e2310eee82c3261e51867026d0d7d016e00213c"
          }
        },
        {
          "client_id": "123277985129-t699mc98s6jfsk3um73amrpa7p20ktea.apps.googleusercontent.com",
          "client_type": 3
        }
      ],
      "api_key": [
        {
          "current_key": "AIzaSyDFuaR5oP3rYXtG_sgjSpN7PGR2p1dcl00"
        }
      ],
      "services": {
        "appinvite_service": {
          "other_platform_oauth_client": [
            {
              "client_id": "123277985129-t699mc98s6jfsk3um73amrpa7p20ktea.apps.googleusercontent.com",
              "client_type": 3
            }
          ]
        }
      }
    }
  ],
  "configuration_version": "1"
}